{
    "updateInfo":{
        "appName": "NuKliQ",
        "appDescription": "The NuKliQ Android Client",
        "packageName": "com.nuchwezi.nukliq",
        "versionCode": "1",
        "versionName": "1.0",
        "forceUpdate": true,
        "autoUpdate": true,
        "apkUrl": "https://bitbucket.org/nemesisfixx/nukliq-binaries/raw/master/NuKliQ.apk",
	"message": "Initial Build"
    }
}

